^G:\COCOSPROJECTS\POKEMON\PROJ.WIN32\MAIN.CPP
/c /I"G:\Software\Cocos\frameworks\cocos2d-x-3.5\cocos\audio\include" /I"G:\Software\Cocos\frameworks\cocos2d-x-3.5\external" /I"G:\Software\Cocos\frameworks\cocos2d-x-3.5\external\chipmunk\include\chipmunk" /I"G:\Software\Cocos\frameworks\cocos2d-x-3.5\extensions" /I..\Classes /I.. /I"G:\Software\Cocos\frameworks\cocos2d-x-3.5\cocos\2d\..\..\cocos\editor-support" /I"G:\Software\Cocos\frameworks\cocos2d-x-3.5\cocos\2d\..\..\cocos" /I"G:\Software\Cocos\frameworks\cocos2d-x-3.5\cocos\2d\..\..\cocos\platform" /I"G:\Software\Cocos\frameworks\cocos2d-x-3.5\cocos\2d\..\..\cocos\platform\desktop" /I"G:\Software\Cocos\frameworks\cocos2d-x-3.5\cocos\2d\..\..\external\glfw3\include\win32" /I"G:\Software\Cocos\frameworks\cocos2d-x-3.5\cocos\2d\..\..\external\win32-specific\gles\include\OGLES" /ZI /nologo /W3 /WX- /Od /Oy- /D WIN32 /D _WINDOWS /D _USE_MATH_DEFINES /D GL_GLEXT_PROTOTYPES /D CC_ENABLE_CHIPMUNK_INTEGRATION=1 /D _CRT_SECURE_NO_WARNINGS /D _SCL_SECURE_NO_WARNINGS /D COCOS2D_DEBUG=1 /D DEBUG=1 /D _VARIADIC_MAX=10 /D _UNICODE /D UNICODE /Gm- /EHsc /RTC1 /MD /GS /fp:precise /Zc:wchar_t /Zc:forScope /Fo"DEBUG.WIN32\\" /Fd"DEBUG.WIN32\VC120.PDB" /Gd /TP /wd4267 /wd4251 /wd4244 /analyze- G:\COCOSPROJECTS\POKEMON\PROJ.WIN32\MAIN.CPP
^G:\COCOSPROJECTS\POKEMON\PROJ.WIN32\POKEMON\POKEMON.CPP
/c /I"G:\Software\Cocos\frameworks\cocos2d-x-3.5\cocos\audio\include" /I"G:\Software\Cocos\frameworks\cocos2d-x-3.5\external" /I"G:\Software\Cocos\frameworks\cocos2d-x-3.5\external\chipmunk\include\chipmunk" /I"G:\Software\Cocos\frameworks\cocos2d-x-3.5\extensions" /I..\Classes /I.. /I"G:\Software\Cocos\frameworks\cocos2d-x-3.5\cocos\2d\..\..\cocos\editor-support" /I"G:\Software\Cocos\frameworks\cocos2d-x-3.5\cocos\2d\..\..\cocos" /I"G:\Software\Cocos\frameworks\cocos2d-x-3.5\cocos\2d\..\..\cocos\platform" /I"G:\Software\Cocos\frameworks\cocos2d-x-3.5\cocos\2d\..\..\cocos\platform\desktop" /I"G:\Software\Cocos\frameworks\cocos2d-x-3.5\cocos\2d\..\..\external\glfw3\include\win32" /I"G:\Software\Cocos\frameworks\cocos2d-x-3.5\cocos\2d\..\..\external\win32-specific\gles\include\OGLES" /ZI /nologo /W3 /WX- /Od /Oy- /D WIN32 /D _WINDOWS /D _USE_MATH_DEFINES /D GL_GLEXT_PROTOTYPES /D CC_ENABLE_CHIPMUNK_INTEGRATION=1 /D _CRT_SECURE_NO_WARNINGS /D _SCL_SECURE_NO_WARNINGS /D COCOS2D_DEBUG=1 /D DEBUG=1 /D _VARIADIC_MAX=10 /D _UNICODE /D UNICODE /Gm- /EHsc /RTC1 /MD /GS /fp:precise /Zc:wchar_t /Zc:forScope /Fo"DEBUG.WIN32\\" /Fd"DEBUG.WIN32\VC120.PDB" /Gd /TP /wd4267 /wd4251 /wd4244 /analyze- G:\COCOSPROJECTS\POKEMON\PROJ.WIN32\POKEMON\POKEMON.CPP
^G:\COCOSPROJECTS\POKEMON\PROJ.WIN32\SCENE\SCENEMANAGER.CPP
/c /I"G:\Software\Cocos\frameworks\cocos2d-x-3.5\cocos\audio\include" /I"G:\Software\Cocos\frameworks\cocos2d-x-3.5\external" /I"G:\Software\Cocos\frameworks\cocos2d-x-3.5\external\chipmunk\include\chipmunk" /I"G:\Software\Cocos\frameworks\cocos2d-x-3.5\extensions" /I..\Classes /I.. /I"G:\Software\Cocos\frameworks\cocos2d-x-3.5\cocos\2d\..\..\cocos\editor-support" /I"G:\Software\Cocos\frameworks\cocos2d-x-3.5\cocos\2d\..\..\cocos" /I"G:\Software\Cocos\frameworks\cocos2d-x-3.5\cocos\2d\..\..\cocos\platform" /I"G:\Software\Cocos\frameworks\cocos2d-x-3.5\cocos\2d\..\..\cocos\platform\desktop" /I"G:\Software\Cocos\frameworks\cocos2d-x-3.5\cocos\2d\..\..\external\glfw3\include\win32" /I"G:\Software\Cocos\frameworks\cocos2d-x-3.5\cocos\2d\..\..\external\win32-specific\gles\include\OGLES" /ZI /nologo /W3 /WX- /Od /Oy- /D WIN32 /D _WINDOWS /D _USE_MATH_DEFINES /D GL_GLEXT_PROTOTYPES /D CC_ENABLE_CHIPMUNK_INTEGRATION=1 /D _CRT_SECURE_NO_WARNINGS /D _SCL_SECURE_NO_WARNINGS /D COCOS2D_DEBUG=1 /D DEBUG=1 /D _VARIADIC_MAX=10 /D _UNICODE /D UNICODE /Gm- /EHsc /RTC1 /MD /GS /fp:precise /Zc:wchar_t /Zc:forScope /Fo"DEBUG.WIN32\\" /Fd"DEBUG.WIN32\VC120.PDB" /Gd /TP /wd4267 /wd4251 /wd4244 /analyze- G:\COCOSPROJECTS\POKEMON\PROJ.WIN32\SCENE\SCENEMANAGER.CPP
^G:\COCOSPROJECTS\POKEMON\PROJ.WIN32\SOUND\SOUNDMANAGER.CPP
/c /I"G:\Software\Cocos\frameworks\cocos2d-x-3.5\cocos\audio\include" /I"G:\Software\Cocos\frameworks\cocos2d-x-3.5\external" /I"G:\Software\Cocos\frameworks\cocos2d-x-3.5\external\chipmunk\include\chipmunk" /I"G:\Software\Cocos\frameworks\cocos2d-x-3.5\extensions" /I..\Classes /I.. /I"G:\Software\Cocos\frameworks\cocos2d-x-3.5\cocos\2d\..\..\cocos\editor-support" /I"G:\Software\Cocos\frameworks\cocos2d-x-3.5\cocos\2d\..\..\cocos" /I"G:\Software\Cocos\frameworks\cocos2d-x-3.5\cocos\2d\..\..\cocos\platform" /I"G:\Software\Cocos\frameworks\cocos2d-x-3.5\cocos\2d\..\..\cocos\platform\desktop" /I"G:\Software\Cocos\frameworks\cocos2d-x-3.5\cocos\2d\..\..\external\glfw3\include\win32" /I"G:\Software\Cocos\frameworks\cocos2d-x-3.5\cocos\2d\..\..\external\win32-specific\gles\include\OGLES" /ZI /nologo /W3 /WX- /Od /Oy- /D WIN32 /D _WINDOWS /D _USE_MATH_DEFINES /D GL_GLEXT_PROTOTYPES /D CC_ENABLE_CHIPMUNK_INTEGRATION=1 /D _CRT_SECURE_NO_WARNINGS /D _SCL_SECURE_NO_WARNINGS /D COCOS2D_DEBUG=1 /D DEBUG=1 /D _VARIADIC_MAX=10 /D _UNICODE /D UNICODE /Gm- /EHsc /RTC1 /MD /GS /fp:precise /Zc:wchar_t /Zc:forScope /Fo"DEBUG.WIN32\\" /Fd"DEBUG.WIN32\VC120.PDB" /Gd /TP /wd4267 /wd4251 /wd4244 /analyze- G:\COCOSPROJECTS\POKEMON\PROJ.WIN32\SOUND\SOUNDMANAGER.CPP
^G:\COCOSPROJECTS\POKEMON\PROJ.WIN32\UI\BELTUI.CPP
/c /I"G:\Software\Cocos\frameworks\cocos2d-x-3.5\cocos\audio\include" /I"G:\Software\Cocos\frameworks\cocos2d-x-3.5\external" /I"G:\Software\Cocos\frameworks\cocos2d-x-3.5\external\chipmunk\include\chipmunk" /I"G:\Software\Cocos\frameworks\cocos2d-x-3.5\extensions" /I..\Classes /I.. /I"G:\Software\Cocos\frameworks\cocos2d-x-3.5\cocos\2d\..\..\cocos\editor-support" /I"G:\Software\Cocos\frameworks\cocos2d-x-3.5\cocos\2d\..\..\cocos" /I"G:\Software\Cocos\frameworks\cocos2d-x-3.5\cocos\2d\..\..\cocos\platform" /I"G:\Software\Cocos\frameworks\cocos2d-x-3.5\cocos\2d\..\..\cocos\platform\desktop" /I"G:\Software\Cocos\frameworks\cocos2d-x-3.5\cocos\2d\..\..\external\glfw3\include\win32" /I"G:\Software\Cocos\frameworks\cocos2d-x-3.5\cocos\2d\..\..\external\win32-specific\gles\include\OGLES" /ZI /nologo /W3 /WX- /Od /Oy- /D WIN32 /D _WINDOWS /D _USE_MATH_DEFINES /D GL_GLEXT_PROTOTYPES /D CC_ENABLE_CHIPMUNK_INTEGRATION=1 /D _CRT_SECURE_NO_WARNINGS /D _SCL_SECURE_NO_WARNINGS /D COCOS2D_DEBUG=1 /D DEBUG=1 /D _VARIADIC_MAX=10 /D _UNICODE /D UNICODE /Gm- /EHsc /RTC1 /MD /GS /fp:precise /Zc:wchar_t /Zc:forScope /Fo"DEBUG.WIN32\\" /Fd"DEBUG.WIN32\VC120.PDB" /Gd /TP /wd4267 /wd4251 /wd4244 /analyze- G:\COCOSPROJECTS\POKEMON\PROJ.WIN32\UI\BELTUI.CPP
^G:\COCOSPROJECTS\POKEMON\PROJ.WIN32\UI\UIMANAGER.CPP
/c /I"G:\Software\Cocos\frameworks\cocos2d-x-3.5\cocos\audio\include" /I"G:\Software\Cocos\frameworks\cocos2d-x-3.5\external" /I"G:\Software\Cocos\frameworks\cocos2d-x-3.5\external\chipmunk\include\chipmunk" /I"G:\Software\Cocos\frameworks\cocos2d-x-3.5\extensions" /I..\Classes /I.. /I"G:\Software\Cocos\frameworks\cocos2d-x-3.5\cocos\2d\..\..\cocos\editor-support" /I"G:\Software\Cocos\frameworks\cocos2d-x-3.5\cocos\2d\..\..\cocos" /I"G:\Software\Cocos\frameworks\cocos2d-x-3.5\cocos\2d\..\..\cocos\platform" /I"G:\Software\Cocos\frameworks\cocos2d-x-3.5\cocos\2d\..\..\cocos\platform\desktop" /I"G:\Software\Cocos\frameworks\cocos2d-x-3.5\cocos\2d\..\..\external\glfw3\include\win32" /I"G:\Software\Cocos\frameworks\cocos2d-x-3.5\cocos\2d\..\..\external\win32-specific\gles\include\OGLES" /ZI /nologo /W3 /WX- /Od /Oy- /D WIN32 /D _WINDOWS /D _USE_MATH_DEFINES /D GL_GLEXT_PROTOTYPES /D CC_ENABLE_CHIPMUNK_INTEGRATION=1 /D _CRT_SECURE_NO_WARNINGS /D _SCL_SECURE_NO_WARNINGS /D COCOS2D_DEBUG=1 /D DEBUG=1 /D _VARIADIC_MAX=10 /D _UNICODE /D UNICODE /Gm- /EHsc /RTC1 /MD /GS /fp:precise /Zc:wchar_t /Zc:forScope /Fo"DEBUG.WIN32\\" /Fd"DEBUG.WIN32\VC120.PDB" /Gd /TP /wd4267 /wd4251 /wd4244 /analyze- G:\COCOSPROJECTS\POKEMON\PROJ.WIN32\UI\UIMANAGER.CPP
^G:\COCOSPROJECTS\POKEMON\CLASSES\APPDELEGATE.CPP
/c /I"G:\Software\Cocos\frameworks\cocos2d-x-3.5\cocos\audio\include" /I"G:\Software\Cocos\frameworks\cocos2d-x-3.5\external" /I"G:\Software\Cocos\frameworks\cocos2d-x-3.5\external\chipmunk\include\chipmunk" /I"G:\Software\Cocos\frameworks\cocos2d-x-3.5\extensions" /I..\Classes /I.. /I"G:\Software\Cocos\frameworks\cocos2d-x-3.5\cocos\2d\..\..\cocos\editor-support" /I"G:\Software\Cocos\frameworks\cocos2d-x-3.5\cocos\2d\..\..\cocos" /I"G:\Software\Cocos\frameworks\cocos2d-x-3.5\cocos\2d\..\..\cocos\platform" /I"G:\Software\Cocos\frameworks\cocos2d-x-3.5\cocos\2d\..\..\cocos\platform\desktop" /I"G:\Software\Cocos\frameworks\cocos2d-x-3.5\cocos\2d\..\..\external\glfw3\include\win32" /I"G:\Software\Cocos\frameworks\cocos2d-x-3.5\cocos\2d\..\..\external\win32-specific\gles\include\OGLES" /ZI /nologo /W3 /WX- /Od /Oy- /D WIN32 /D _WINDOWS /D _USE_MATH_DEFINES /D GL_GLEXT_PROTOTYPES /D CC_ENABLE_CHIPMUNK_INTEGRATION=1 /D _CRT_SECURE_NO_WARNINGS /D _SCL_SECURE_NO_WARNINGS /D COCOS2D_DEBUG=1 /D DEBUG=1 /D _VARIADIC_MAX=10 /D _UNICODE /D UNICODE /Gm- /EHsc /RTC1 /MD /GS /fp:precise /Zc:wchar_t /Zc:forScope /Fo"DEBUG.WIN32\\" /Fd"DEBUG.WIN32\VC120.PDB" /Gd /TP /wd4267 /wd4251 /wd4244 /analyze- G:\COCOSPROJECTS\POKEMON\CLASSES\APPDELEGATE.CPP
^G:\COCOSPROJECTS\POKEMON\CLASSES\APPPOKEMON.CPP
/c /I"G:\Software\Cocos\frameworks\cocos2d-x-3.5\cocos\audio\include" /I"G:\Software\Cocos\frameworks\cocos2d-x-3.5\external" /I"G:\Software\Cocos\frameworks\cocos2d-x-3.5\external\chipmunk\include\chipmunk" /I"G:\Software\Cocos\frameworks\cocos2d-x-3.5\extensions" /I..\Classes /I.. /I"G:\Software\Cocos\frameworks\cocos2d-x-3.5\cocos\2d\..\..\cocos\editor-support" /I"G:\Software\Cocos\frameworks\cocos2d-x-3.5\cocos\2d\..\..\cocos" /I"G:\Software\Cocos\frameworks\cocos2d-x-3.5\cocos\2d\..\..\cocos\platform" /I"G:\Software\Cocos\frameworks\cocos2d-x-3.5\cocos\2d\..\..\cocos\platform\desktop" /I"G:\Software\Cocos\frameworks\cocos2d-x-3.5\cocos\2d\..\..\external\glfw3\include\win32" /I"G:\Software\Cocos\frameworks\cocos2d-x-3.5\cocos\2d\..\..\external\win32-specific\gles\include\OGLES" /ZI /nologo /W3 /WX- /Od /Oy- /D WIN32 /D _WINDOWS /D _USE_MATH_DEFINES /D GL_GLEXT_PROTOTYPES /D CC_ENABLE_CHIPMUNK_INTEGRATION=1 /D _CRT_SECURE_NO_WARNINGS /D _SCL_SECURE_NO_WARNINGS /D COCOS2D_DEBUG=1 /D DEBUG=1 /D _VARIADIC_MAX=10 /D _UNICODE /D UNICODE /Gm- /EHsc /RTC1 /MD /GS /fp:precise /Zc:wchar_t /Zc:forScope /Fo"DEBUG.WIN32\\" /Fd"DEBUG.WIN32\VC120.PDB" /Gd /TP /wd4267 /wd4251 /wd4244 /analyze- G:\COCOSPROJECTS\POKEMON\CLASSES\APPPOKEMON.CPP
^G:\COCOSPROJECTS\POKEMON\PROJ.WIN32\CHARACTERS\CHARACTER.CPP
/c /I"G:\Software\Cocos\frameworks\cocos2d-x-3.5\cocos\audio\include" /I"G:\Software\Cocos\frameworks\cocos2d-x-3.5\external" /I"G:\Software\Cocos\frameworks\cocos2d-x-3.5\external\chipmunk\include\chipmunk" /I"G:\Software\Cocos\frameworks\cocos2d-x-3.5\extensions" /I..\Classes /I.. /I"G:\Software\Cocos\frameworks\cocos2d-x-3.5\cocos\2d\..\..\cocos\editor-support" /I"G:\Software\Cocos\frameworks\cocos2d-x-3.5\cocos\2d\..\..\cocos" /I"G:\Software\Cocos\frameworks\cocos2d-x-3.5\cocos\2d\..\..\cocos\platform" /I"G:\Software\Cocos\frameworks\cocos2d-x-3.5\cocos\2d\..\..\cocos\platform\desktop" /I"G:\Software\Cocos\frameworks\cocos2d-x-3.5\cocos\2d\..\..\external\glfw3\include\win32" /I"G:\Software\Cocos\frameworks\cocos2d-x-3.5\cocos\2d\..\..\external\win32-specific\gles\include\OGLES" /ZI /nologo /W3 /WX- /Od /Oy- /D WIN32 /D _WINDOWS /D _USE_MATH_DEFINES /D GL_GLEXT_PROTOTYPES /D CC_ENABLE_CHIPMUNK_INTEGRATION=1 /D _CRT_SECURE_NO_WARNINGS /D _SCL_SECURE_NO_WARNINGS /D COCOS2D_DEBUG=1 /D DEBUG=1 /D _VARIADIC_MAX=10 /D _UNICODE /D UNICODE /Gm- /EHsc /RTC1 /MD /GS /fp:precise /Zc:wchar_t /Zc:forScope /Fo"DEBUG.WIN32\\" /Fd"DEBUG.WIN32\VC120.PDB" /Gd /TP /wd4267 /wd4251 /wd4244 /analyze- G:\COCOSPROJECTS\POKEMON\PROJ.WIN32\CHARACTERS\CHARACTER.CPP
^G:\COCOSPROJECTS\POKEMON\PROJ.WIN32\CHARACTERS\TRAINER.CPP
/c /I"G:\Software\Cocos\frameworks\cocos2d-x-3.5\cocos\audio\include" /I"G:\Software\Cocos\frameworks\cocos2d-x-3.5\external" /I"G:\Software\Cocos\frameworks\cocos2d-x-3.5\external\chipmunk\include\chipmunk" /I"G:\Software\Cocos\frameworks\cocos2d-x-3.5\extensions" /I..\Classes /I.. /I"G:\Software\Cocos\frameworks\cocos2d-x-3.5\cocos\2d\..\..\cocos\editor-support" /I"G:\Software\Cocos\frameworks\cocos2d-x-3.5\cocos\2d\..\..\cocos" /I"G:\Software\Cocos\frameworks\cocos2d-x-3.5\cocos\2d\..\..\cocos\platform" /I"G:\Software\Cocos\frameworks\cocos2d-x-3.5\cocos\2d\..\..\cocos\platform\desktop" /I"G:\Software\Cocos\frameworks\cocos2d-x-3.5\cocos\2d\..\..\external\glfw3\include\win32" /I"G:\Software\Cocos\frameworks\cocos2d-x-3.5\cocos\2d\..\..\external\win32-specific\gles\include\OGLES" /ZI /nologo /W3 /WX- /Od /Oy- /D WIN32 /D _WINDOWS /D _USE_MATH_DEFINES /D GL_GLEXT_PROTOTYPES /D CC_ENABLE_CHIPMUNK_INTEGRATION=1 /D _CRT_SECURE_NO_WARNINGS /D _SCL_SECURE_NO_WARNINGS /D COCOS2D_DEBUG=1 /D DEBUG=1 /D _VARIADIC_MAX=10 /D _UNICODE /D UNICODE /Gm- /EHsc /RTC1 /MD /GS /fp:precise /Zc:wchar_t /Zc:forScope /Fo"DEBUG.WIN32\\" /Fd"DEBUG.WIN32\VC120.PDB" /Gd /TP /wd4267 /wd4251 /wd4244 /analyze- G:\COCOSPROJECTS\POKEMON\PROJ.WIN32\CHARACTERS\TRAINER.CPP
^G:\COCOSPROJECTS\POKEMON\PROJ.WIN32\MAPS\MAPMANAGER.CPP
/c /I"G:\Software\Cocos\frameworks\cocos2d-x-3.5\cocos\audio\include" /I"G:\Software\Cocos\frameworks\cocos2d-x-3.5\external" /I"G:\Software\Cocos\frameworks\cocos2d-x-3.5\external\chipmunk\include\chipmunk" /I"G:\Software\Cocos\frameworks\cocos2d-x-3.5\extensions" /I..\Classes /I.. /I"G:\Software\Cocos\frameworks\cocos2d-x-3.5\cocos\2d\..\..\cocos\editor-support" /I"G:\Software\Cocos\frameworks\cocos2d-x-3.5\cocos\2d\..\..\cocos" /I"G:\Software\Cocos\frameworks\cocos2d-x-3.5\cocos\2d\..\..\cocos\platform" /I"G:\Software\Cocos\frameworks\cocos2d-x-3.5\cocos\2d\..\..\cocos\platform\desktop" /I"G:\Software\Cocos\frameworks\cocos2d-x-3.5\cocos\2d\..\..\external\glfw3\include\win32" /I"G:\Software\Cocos\frameworks\cocos2d-x-3.5\cocos\2d\..\..\external\win32-specific\gles\include\OGLES" /ZI /nologo /W3 /WX- /Od /Oy- /D WIN32 /D _WINDOWS /D _USE_MATH_DEFINES /D GL_GLEXT_PROTOTYPES /D CC_ENABLE_CHIPMUNK_INTEGRATION=1 /D _CRT_SECURE_NO_WARNINGS /D _SCL_SECURE_NO_WARNINGS /D COCOS2D_DEBUG=1 /D DEBUG=1 /D _VARIADIC_MAX=10 /D _UNICODE /D UNICODE /Gm- /EHsc /RTC1 /MD /GS /fp:precise /Zc:wchar_t /Zc:forScope /Fo"DEBUG.WIN32\\" /Fd"DEBUG.WIN32\VC120.PDB" /Gd /TP /wd4267 /wd4251 /wd4244 /analyze- G:\COCOSPROJECTS\POKEMON\PROJ.WIN32\MAPS\MAPMANAGER.CPP
^G:\COCOSPROJECTS\POKEMON\PROJ.WIN32\TOOLS\DEBUG.CPP
/c /I"G:\Software\Cocos\frameworks\cocos2d-x-3.5\cocos\audio\include" /I"G:\Software\Cocos\frameworks\cocos2d-x-3.5\external" /I"G:\Software\Cocos\frameworks\cocos2d-x-3.5\external\chipmunk\include\chipmunk" /I"G:\Software\Cocos\frameworks\cocos2d-x-3.5\extensions" /I..\Classes /I.. /I"G:\Software\Cocos\frameworks\cocos2d-x-3.5\cocos\2d\..\..\cocos\editor-support" /I"G:\Software\Cocos\frameworks\cocos2d-x-3.5\cocos\2d\..\..\cocos" /I"G:\Software\Cocos\frameworks\cocos2d-x-3.5\cocos\2d\..\..\cocos\platform" /I"G:\Software\Cocos\frameworks\cocos2d-x-3.5\cocos\2d\..\..\cocos\platform\desktop" /I"G:\Software\Cocos\frameworks\cocos2d-x-3.5\cocos\2d\..\..\external\glfw3\include\win32" /I"G:\Software\Cocos\frameworks\cocos2d-x-3.5\cocos\2d\..\..\external\win32-specific\gles\include\OGLES" /ZI /nologo /W3 /WX- /Od /Oy- /D WIN32 /D _WINDOWS /D _USE_MATH_DEFINES /D GL_GLEXT_PROTOTYPES /D CC_ENABLE_CHIPMUNK_INTEGRATION=1 /D _CRT_SECURE_NO_WARNINGS /D _SCL_SECURE_NO_WARNINGS /D COCOS2D_DEBUG=1 /D DEBUG=1 /D _VARIADIC_MAX=10 /D _UNICODE /D UNICODE /Gm- /EHsc /RTC1 /MD /GS /fp:precise /Zc:wchar_t /Zc:forScope /Fo"DEBUG.WIN32\\" /Fd"DEBUG.WIN32\VC120.PDB" /Gd /TP /wd4267 /wd4251 /wd4244 /analyze- G:\COCOSPROJECTS\POKEMON\PROJ.WIN32\TOOLS\DEBUG.CPP
